<svg xmlns="http://www.w3.org/2000/svg" width="87" height="87" viewBox="0 0 87 87">
    <path fill="#FFF" fill-rule="nonzero" d="M18.984 64.758c-2.25 0-4.166-.791-5.748-2.373-1.582-1.582-2.373-3.463-2.373-5.643 0-2.25.791-4.166 2.373-5.748 1.582-1.582 3.498-2.373 5.748-2.373 2.18 0 4.06.791 5.643 2.373C26.209 52.576 27 54.492 27 56.742c0 2.18-.791 4.06-2.373 5.643-1.582 1.582-3.463 2.373-5.643 2.373zm0-10.758c-.773 0-1.423.264-1.95.791-.528.527-.792 1.178-.792 1.951 0 .703.264 1.319.791 1.846.528.527 1.178.79 1.951.79.704 0 1.319-.263 1.846-.79.527-.527.791-1.143.791-1.846 0-.773-.264-1.424-.79-1.951-.528-.527-1.143-.791-1.847-.791zM67.5 64.758c-2.18 0-4.06-.791-5.643-2.373-1.582-1.582-2.373-3.463-2.373-5.643 0-2.25.791-4.166 2.373-5.748 1.582-1.582 3.463-2.373 5.643-2.373 2.25 0 4.166.791 5.748 2.373 1.582 1.582 2.373 3.498 2.373 5.748 0 2.18-.79 4.06-2.373 5.643-1.582 1.582-3.498 2.373-5.748 2.373zM67.5 54c-.703 0-1.318.264-1.846.791-.527.527-.79 1.178-.79 1.951 0 .703.263 1.319.79 1.846.528.527 1.143.79 1.846.79.773 0 1.424-.263 1.951-.79.528-.527.791-1.143.791-1.846 0-.773-.263-1.424-.79-1.951-.528-.527-1.179-.791-1.952-.791zm13.29-11.285c1.898 1.265 3.321 2.847 4.27 4.746.95 1.898 1.424 4.078 1.424 6.539v13.5c0 1.758-.51 3.322-1.529 4.693a8.163 8.163 0 0 1-3.955 2.9V81c0 1.477-.527 2.742-1.582 3.797-1.055 1.055-2.32 1.582-3.797 1.582h-5.379c-1.476 0-2.742-.527-3.797-1.582-1.054-1.055-1.582-2.32-1.582-3.797v-5.379H21.621V81c0 1.477-.527 2.742-1.582 3.797-1.055 1.055-2.32 1.582-3.797 1.582h-5.379c-1.476 0-2.742-.527-3.797-1.582-1.054-1.055-1.582-2.32-1.582-3.797v-5.906a8.163 8.163 0 0 1-3.955-2.9C.51 70.821 0 69.257 0 67.5V54c0-2.461.475-4.64 1.424-6.54.95-1.898 2.373-3.48 4.271-4.745.352-2.18 1.037-5.818 2.057-10.916 1.02-5.098 2.162-8.912 3.428-11.444.773-1.617 2.215-3.058 4.324-4.324 2.11-1.265 4.851-2.32 8.226-3.164.493-.14 1.02-.263 1.582-.369a28.968 28.968 0 0 0 1.688-.37V8.122c0-2.25.791-4.166 2.373-5.748C30.955.791 32.871 0 35.121 0h16.242c2.25 0 4.166.791 5.748 2.373 1.582 1.582 2.373 3.498 2.373 5.748v4.008c.563.14 1.125.264 1.688.369.562.106 1.09.229 1.582.37 3.375.843 6.117 1.898 8.226 3.163 2.11 1.266 3.551 2.707 4.325 4.324 1.265 2.532 2.408 6.346 3.427 11.444 1.02 5.098 1.705 8.736 2.057 10.916zM32.483 8.12v3.27c1.688-.211 3.446-.37 5.274-.475a95.2 95.2 0 0 1 10.969 0c1.828.105 3.585.264 5.273.475V8.12c0-.773-.264-1.424-.791-1.951-.527-.527-1.143-.791-1.846-.791H35.121c-.703 0-1.318.264-1.846.79-.527.528-.79 1.179-.79 1.952zm-16.558 14.66c-.774 1.547-1.547 4.06-2.32 7.541a325.478 325.478 0 0 0-2.004 9.65l1.687-.421c2.461-.563 5.238-.967 8.332-1.213 3.094-.246 6.469-.404 10.125-.475l-8.86-5.906a2.602 2.602 0 0 1-1.16-1.74c-.14-.738-.035-1.424.317-2.057.422-.562 1.002-.931 1.74-1.107a2.512 2.512 0 0 1 2.057.369l15.504 10.336h1.898c2.672 0 5.256.017 7.752.053 2.496.035 4.904.087 7.225.158l-8.438-6.117c-.633-.422-1.002-1.002-1.107-1.74-.106-.739.053-1.39.474-1.952.422-.633 1.002-1.002 1.74-1.107a2.863 2.863 0 0 1 2.057.474l15.61 11.18c.843.14 1.652.281 2.425.422.774.14 1.512.281 2.215.422l.844.21.844.212c-.563-2.953-1.23-6.17-2.004-9.65-.774-3.481-1.547-5.995-2.32-7.542-.844-1.617-3.657-3.111-8.438-4.482-4.781-1.371-11.074-2.057-18.879-2.057-7.805 0-14.097.686-18.879 2.057-4.781 1.37-7.593 2.865-8.437 4.482zM16.242 81v-5.379h-5.379V81h5.38zm54 0h5.38v-5.379h-5.38V81zM81 67.5V54c0-2.461-.703-4.412-2.11-5.854-1.406-1.44-3.726-2.548-6.96-3.322-3.375-.844-7.524-1.318-12.446-1.424a762.838 762.838 0 0 0-16.242-.158c-5.906 0-11.32.053-16.242.158-4.922.106-9.07.58-12.445 1.424-3.235.774-5.555 1.881-6.961 3.322-1.407 1.442-2.11 3.393-2.11 5.854v13.5c0 .773.264 1.424.791 1.951.528.528 1.143.791 1.846.791h70.242c.703 0 1.319-.263 1.846-.79.527-.528.791-1.179.791-1.952z"/>
</svg>
